<?xml version="1.0" encoding="UTF-8"?>
<svg width="14px" height="9px" viewBox="0 0 14 9" version="1.1" xmlns="http://www.w3.org/2000/svg" xmlns:xlink="http://www.w3.org/1999/xlink">
    <!-- Generator: Sketch 43.2 (39069) - http://www.bohemiancoding.com/sketch -->
    <title>Path Copy</title>
    <desc>Created with Sketch.</desc>
    <defs></defs>
    <g id="Symbols" stroke="none" stroke-width="1" fill="none" fill-rule="evenodd">
        <g id="buttons/selection-controls/checkbox-on" transform="translate(-10.000000, -12.000000)" fill="#FFFFFF">
            <g id="checkbox_on" transform="translate(6.000000, 6.000000)">
                <polygon id="Path-Copy" points="9.25396825 14.8412698 4.88888889 10.6440781 6.11111111 9.46886447 9.25396825 12.4908425 15.8888889 6.11111111 17.1111111 7.28632479"></polygon>
            </g>
        </g>
    </g>
</svg>