<svg viewBox="0 0 14 13" xmlns="http://www.w3.org/2000/svg">    
    <g transform="translate(-17.000000, -18.000000)" fill="#969696" stroke-width="1" fill-rule="evenodd">
        <g transform="translate(12.000000, 12.000000)">
            <path d="M7.5,11.1362715 L11.5,7.13627124 C12,6.63627124 10.5,5.63627125 10,6.13627124 L5,11.1362712 L5,13.1362712 L10,18.1362712 C10.5,18.6362715 12,17.6362717 11.5,17.1362715 L7.5,13.1362715 L17.5,13.1362712 C18.0473306,13.1589274 18.5,12.7008266 18.5,12.1362712 C18.5,11.5683851 18.0473306,11.1092597 17.5,11.1362714 L7.5,11.1362715 Z" transform="translate(11.750000, 12.136271) scale(-1, 1) translate(-11.750000, -12.136271) "></path>
        </g>
    </g>    
</svg>