<svg viewBox="0 0 15 19" xmlns="http://www.w3.org/2000/svg">    
    <g transform="translate(-17.000000, -15.000000)" fill="#969696" stroke-width="1" fill-rule="evenodd">     
        <path d="M24.3730655,25.546875 C21.5359076,25.546875 19.2270717,23.1808594 19.2270717,20.2734375 C19.2270717,17.3660156 21.5359076,15 24.3730655,15 C27.2102234,15 29.5184875,17.3660156 29.5184875,20.2734375 C29.5184875,23.1808594 27.2102234,25.546875 24.3730655,25.546875 L24.3730655,25.546875 Z M24.3730655,16.171875 L24.3730655,16.171875 C26.580125,16.171875 28.3749333,18.0117188 28.3749333,20.2734375 C28.3749333,22.5351563 26.5795533,24.375 24.3730655,24.375 C22.1660059,24.375 20.3706259,22.5351563 20.3706259,20.2734375 C20.3706259,18.0117188 22.1660059,16.171875 24.3730655,16.171875 Z M32,33.75 L17,33.75 L17.679843,27.4769531 L20.8566364,26.1744141 L21.2820386,27.2630859 L18.7410612,28.3042969 L18.27735,32.578125 L30.72265,32.578125 L30.2589388,28.3042969 L27.7179614,27.2630859 L28.1433636,26.1744141 L31.320157,27.4769531 L32,33.75 Z"></path>
    </g>
</svg>