<?xml version="1.0" encoding="UTF-8"?>
<svg width="84px" height="52px" viewBox="0 0 84 52" version="1.1" xmlns="http://www.w3.org/2000/svg" xmlns:xlink="http://www.w3.org/1999/xlink">
    <!-- Generator: Sketch 43.2 (39069) - http://www.bohemiancoding.com/sketch -->
    <title>Page 1</title>
    <desc>Created with Sketch.</desc>
    <defs>
        <linearGradient x1="3.061617e-15%" y1="50%" x2="100%" y2="50%" id="linearGradient-1">
            <stop stop-color="#E01E2C" offset="0%"></stop>
            <stop stop-color="#A61E28" offset="100%"></stop>
        </linearGradient>
    </defs>
    <g id="Symbols" stroke="none" stroke-width="1" fill="none" fill-rule="evenodd">
        <g id="img/producttag/clubdeal-a">
            <g id="tag_supersaver">
                <g id="Page-1">
                    <path d="M0,0 L0,38.3551293 C0,38.3551293 0,41.225034 2.80616949,41.951619 L2.80616949,41.951619 L39.0639153,51.336381 C39.0639153,51.336381 40.2904576,51.6540408 41.9323729,51.6593469 L41.9323729,51.6593469 L42.015661,51.6593469 C42.8367966,51.6568707 43.7565254,51.5748027 44.6766102,51.336381 L44.6766102,51.336381 L80.9364915,41.951619 C80.9364915,41.951619 83.742661,41.225034 83.742661,38.3551293 L83.742661,38.3551293 L83.742661,0 L0,0 Z" id="Fill-1" fill="url(#linearGradient-1)"></path>
                    <g id="Group-35" transform="translate(4.983051, 4.965469)" fill="#FEFEFE">
                        <path d="M20.9903186,5.37927619 C22.9191153,5.04145306 26.8311661,4.98273197 26.7742169,7.1073034 L26.7329288,9.65919456 L23.1227085,10.2930993 L23.1262678,9.31182041 C23.1554542,8.58311293 22.0552678,8.71788844 21.5206576,8.81021497 C18.6924203,9.30686803 17.9926576,12.1307864 18.3083695,13.9168272 C18.5749627,15.4170449 19.5060814,16.6629224 21.4537424,16.3222694 C22.3140305,16.1715755 22.9394034,15.9246639 22.9483017,15.296419 L22.9660983,14.2932082 L26.616539,13.654351 L26.6090644,15.9469497 C26.579878,18.3414259 23.6480644,19.4613714 21.7747932,19.7889361 C17.9143525,20.4656435 14.7209288,18.4613442 14.0806068,14.8528272 C13.3114373,10.5049905 16.2507254,6.20986122 20.9903186,5.37927619" id="Fill-3"></path>
                        <path d="M28.8676322,14.1615456 L28.9964797,7.1093551 L27.7912932,7.32018503 L27.8471746,4.41313741 L33.0259881,3.50543673 L32.8985644,13.1226068 C32.874361,13.4201034 32.8921576,13.749083 32.9224119,13.9199401 C32.9843441,14.2630694 33.1548356,14.447015 33.7083102,14.3504435 C33.8798695,14.321083 34.087378,14.2630694 34.087378,14.2630694 L34.0062254,17.4693823 C34.0062254,17.4693823 33.5388864,17.6108789 32.9273949,17.7187701 C31.1512932,18.0300626 29.4068695,17.9823075 28.9825983,15.5885388 C28.9082085,15.1711238 28.8701237,14.7282395 28.8676322,14.1615456" id="Fill-5"></path>
                        <path d="M35.3073712,13.3837741 L35.381761,9.90755646 L34.1580661,10.1208626 L34.2324559,7.20957007 L39.4304898,6.29833197 L39.3229983,11.9153932 C39.3130322,12.0763456 39.3091169,12.3901143 39.3383034,12.5616789 C39.3988119,12.9030395 39.5543542,13.1113932 40.0316593,13.0279102 C41.0058458,12.8570531 41.6362017,11.5107129 41.6461678,10.3550395 L41.6664559,8.80459048 L40.4448966,9.01931156 L40.5178627,6.10801905 L45.7148288,5.19607347 L45.5959475,11.1891619 C45.5948797,11.2885633 45.5874051,11.5828762 45.6379475,11.8683456 C45.6959644,12.1913116 45.8600492,12.454849 46.5096254,12.341298 C46.6245915,12.3204272 46.7559305,12.2808082 46.7559305,12.2808082 L46.7192695,15.1832571 C46.6648119,15.2115565 45.3941339,15.4934884 44.7449136,15.606332 C43.5991678,15.8086721 42.5708797,15.7927537 41.9693542,14.1747401 L41.9302017,14.1821687 C41.272439,15.6873388 40.2829475,16.5448082 38.888761,16.7903048 C37.2817271,17.0722367 35.7291508,16.4231211 35.3920831,14.5256517 C35.3223203,14.1259238 35.3009644,13.679502 35.3073712,13.3837741" id="Fill-7"></path>
                        <path d="M47.8484288,3.80487891 L46.6446661,4.01570884 L46.7001915,1.11007619 L51.8779373,0.20237551 L51.8021237,3.87633469 C51.7971407,4.40623946 51.7451746,4.78545034 51.7451746,4.78545034 L51.7846831,4.77908299 C52.3125305,4.1006068 53.218378,3.64817143 53.9825644,3.51445714 C56.4093102,3.08855238 58.1686831,4.56330068 58.6385136,7.22025306 C59.266378,10.7530694 56.9585136,13.6236816 54.2452424,14.0994639 C53.3472254,14.2561714 52.1925814,14.1854231 51.3728695,13.4478721 L51.3337169,13.4542395 C51.3337169,13.4542395 51.3675305,13.6456136 51.3739373,13.8978313 L51.3789203,14.3668925 L47.6704627,15.0170694 L47.8484288,3.80487891 Z M53.1350898,10.9458585 C54.0128186,10.791981 54.9325475,9.75056599 54.6634627,8.23089252 C54.5129034,7.3953551 53.9380729,6.92841633 53.1742424,7.06213061 C52.6221915,7.16011701 51.3362085,8.03173605 51.6504966,9.79655238 C51.7807678,10.5372871 52.2748017,11.0965524 53.1350898,10.9458585 L53.1350898,10.9458585 Z" id="Fill-9"></path>
                        <path d="M17.2171525,34.3036218 L18.6494237,34.0531728 L18.7747119,25.9839755 L17.3435085,26.2344245 L17.3976102,23.2106422 L23.299322,22.1755946 C27.3708305,21.4624517 30.1346441,23.0525197 30.7407966,26.4696626 C31.5494746,31.0283293 28.9130847,35.2679211 24.1937797,36.0956762 L17.1626949,37.3274041 L17.2171525,34.3036218 Z M23.5733898,32.9346422 C26.0204237,32.5062612 27.1295085,30.0986966 26.6810339,27.5740435 C26.3742203,25.8446014 25.2953898,25.0950231 23.6912034,25.3769551 L22.8889322,25.5170367 L22.7914068,33.0718939 L23.5733898,32.9346422 Z" id="Fill-11"></path>
                        <path d="M36.3305339,23.5728735 C39.1007542,23.0871864 40.9640593,24.4830503 41.3516695,26.6659891 C41.5363983,27.7127102 41.3061102,28.6327918 41.3061102,28.6327918 L35.5168729,29.6473224 C35.6660085,30.5999483 36.3988729,30.8440299 37.259161,30.6936898 C38.6537034,30.4492544 39.978839,29.2560844 39.978839,29.2560844 L41.4879915,31.9880299 C41.4879915,31.9880299 40.0507373,33.5515673 37.3940593,34.0167374 C33.9746186,34.6159755 31.9803305,32.8133088 31.5265169,30.247268 C30.9733983,27.1350503 32.9869068,24.1579619 36.3305339,23.5728735 L36.3305339,23.5728735 Z M37.4862458,27.5400844 C37.4862458,27.5400844 37.4648898,27.190234 37.427161,26.9825878 C37.3638051,26.6210639 37.1644831,26.1672136 36.5718559,26.2701524 C35.8656864,26.3936082 35.6332627,27.199785 35.5763136,27.875785 L37.4862458,27.5400844 Z" id="Fill-13"></path>
                        <path d="M47.5477729,25.8545769 C47.5477729,25.8545769 47.5833661,25.4962367 47.5388746,25.2493252 C47.4644847,24.8326177 46.8608237,24.8598558 46.4778407,24.9267129 C45.2726542,25.1378966 43.7318237,26.327883 43.7318237,26.327883 L42.4686203,23.6511211 C42.4686203,23.6511211 44.5049085,22.1399374 46.7405186,21.7476381 C48.3272644,21.469951 50.9497729,21.5980054 51.4042983,24.1605088 C51.6114508,25.3186585 51.2996542,26.9009442 51.4573322,27.793434 C51.5157051,28.1164 51.700078,28.3774612 52.2546203,28.2805361 C52.3492983,28.2635565 52.576739,28.2048354 52.576739,28.2048354 L52.5237051,31.1316925 C52.5237051,31.1316925 52.3418237,31.2222503 51.1202644,31.4355565 C50.1450102,31.6064136 48.6885356,32.058849 47.8951627,30.4740871 L47.8560102,30.4801007 C47.8560102,30.4801007 46.9932305,32.2774612 45.0832983,32.6117469 C43.6887559,32.8561823 42.1941966,32.2183864 41.9101627,30.6024952 C41.410078,27.7923728 45.1021627,26.2826041 47.5477729,25.8545769 M46.3048576,29.7344136 C46.8985525,29.6304136 47.3822644,28.9197469 47.4822814,28.0403456 L47.5175186,27.6820054 L47.2117729,27.7347129 C46.7924847,27.8086449 45.4331797,28.2624952 45.6050949,29.230332 C45.6844678,29.6679102 46.0382644,29.7807537 46.3048576,29.7344136" id="Fill-15"></path>
                        <path d="M53.104622,26.8783755 L53.2345373,19.8272463 L52.0297068,20.0380762 L52.0841644,17.1313823 L57.262978,16.2236816 L57.136622,25.8383755 C57.1113508,26.1369333 57.1305712,26.4673279 57.1618932,26.6378313 C57.2227576,26.9798993 57.3918254,27.1652599 57.9463678,27.0672735 C58.1182831,27.0379129 58.3240119,26.9813143 58.3240119,26.9813143 L58.2432153,30.1876272 C58.2432153,30.1876272 57.7758763,30.3277088 57.1643847,30.4356 C55.3882831,30.7458313 53.6452831,30.7005524 53.2195881,28.3071374 C53.1462661,27.889015 53.1071136,27.4450694 53.104622,26.8783755" id="Fill-17"></path>
                        <path d="M66.009478,13.0222857 C68.1290542,12.5815238 69.4958339,10.523102 69.0562576,8.41480272 C69.4958339,10.523102 71.5687831,11.8740408 73.6897831,11.4371701 C71.5687831,11.8740408 70.2084102,13.937415 70.6490542,16.0471293 C70.2084102,13.937415 68.1290542,12.5815238 66.009478,13.0222857" id="Fill-19"></path>
                        <path d="M72.7524356,5.14258776 C71.6255542,5.37358095 70.9044356,6.47159456 71.1379271,7.58623401 C70.9044356,6.47159456 69.8017576,5.7499619 68.6738085,5.98307755 C69.8017576,5.7499619 70.5228763,4.65371701 70.2943678,3.53943129 C70.5228763,4.65371701 71.6255542,5.37358095 72.7524356,5.14258776" id="Fill-21"></path>
                        <path d="M66.2216136,9.48819592 C65.0947322,9.71918912 64.3736136,10.8157878 64.607461,11.9318422 C64.3736136,10.8157878 63.2695119,10.0959238 62.1429864,10.3286857 C63.2695119,10.0959238 63.9920542,8.99932517 63.7635458,7.88362449 C63.9920542,8.99932517 65.0947322,9.71918912 66.2216136,9.48819592" id="Fill-23"></path>
                        <path d="M67.8145881,16.9360463 C66.6877068,17.1691619 65.9680119,18.2654068 66.2000797,19.3796925 C65.9680119,18.2654068 64.8635542,17.5441279 63.735961,17.7772435 C64.8635542,17.5441279 65.5850288,16.4475293 65.3565203,15.3328898 C65.5850288,16.4475293 66.6877068,17.1691619 67.8145881,16.9360463" id="Fill-25"></path>
                        <path d="M3.95351695,25.4221279 C6.07309322,24.981366 7.43987288,22.923298 6.99922881,20.8146449 C7.43987288,22.923298 9.51282203,24.2745905 11.6323983,23.8370122 C9.51282203,24.2745905 8.15244915,26.3379646 8.59344915,28.4469714 C8.15244915,26.3379646 6.07309322,24.981366 3.95351695,25.4221279" id="Fill-27"></path>
                        <path d="M10.6952644,17.5424653 C9.56980678,17.774166 8.8483322,18.8714721 9.08075593,19.9861116 C8.8483322,18.8714721 7.74423051,18.1505469 6.61770508,18.3829551 C7.74423051,18.1505469 8.46677288,17.0539483 8.23826441,15.9393088 C8.46677288,17.0539483 9.56980678,17.774166 10.6952644,17.5424653" id="Fill-29"></path>
                        <path d="M4.16447797,21.8881442 C3.03759661,22.1194912 2.31754576,23.2164435 2.54996949,24.3317905 C2.31754576,23.2164435 1.21237627,22.4962259 0.0869186441,22.728634 C1.21237627,22.4962259 1.93634237,21.3996272 1.70747797,20.2835728 C1.93634237,21.3996272 3.03759661,22.1194912 4.16447797,21.8881442" id="Fill-31"></path>
                        <path d="M5.75734576,29.3358884 C4.63188814,29.5686503 3.91183729,30.665249 4.14283729,31.7802422 C3.91183729,30.665249 2.8066678,29.9443238 1.67978644,30.1770857 C2.8066678,29.9443238 3.52921017,28.8473714 3.30034576,27.7334395 C3.52921017,28.8473714 4.63188814,29.5686503 5.75734576,29.3358884" id="Fill-33"></path>
                    </g>
                </g>
            </g>
        </g>
    </g>
</svg>