<?xml version="1.0" encoding="UTF-8"?>
<svg width="84px" height="62px" viewBox="0 0 84 62" version="1.1" xmlns="http://www.w3.org/2000/svg" xmlns:xlink="http://www.w3.org/1999/xlink">
    <!-- Generator: Sketch 43.2 (39069) - http://www.bohemiancoding.com/sketch -->
    <title>Page 1</title>
    <desc>Created with Sketch.</desc>
    <defs>
        <linearGradient x1="3.061617e-15%" y1="50%" x2="100%" y2="50%" id="linearGradient-1">
            <stop stop-color="#E01E2C" offset="0%"></stop>
            <stop stop-color="#A61E28" offset="100%"></stop>
        </linearGradient>
    </defs>
    <g id="Symbols" stroke="none" stroke-width="1" fill="none" fill-rule="evenodd">
        <g id="img/producttag/clubdeal-b">
            <g id="tag_supersaver">
                <g id="Page-1">
                    <path d="M83.7430169,38.8583746 L83.7437288,38.8583746 C83.7437288,41.7662821 80.9372034,42.5016809 80.9372034,42.5016809 L44.677322,52.010259 C41.8707966,52.7460162 39.0646271,52.0099006 39.0646271,52.0099006 L2.80723729,42.5016809 C0.00106779661,41.7662821 0.00106779661,38.8583746 0.00106779661,38.8583746 L0.00213559322,38.8583746 L0.00106779661,38.8583746 L0,48.4225017 C0,48.4225017 0,51.3368601 2.80652542,52.0744092 L39.0646271,61.6041318 C39.0646271,61.6041318 41.8711525,62.3420393 44.677322,61.6044902 L80.9382712,52.0744092 C80.9382712,52.0744092 83.7444407,51.3368601 83.7444407,48.4225017 L83.7437288,38.8583746 L83.7430169,38.8583746 Z" id="Fill-1" fill="#FFF100"></path>
                    <path d="M0.00106779661,0 L0.00106779661,9.59494798 L0.00106779661,38.8585896 C0.00106779661,38.8585896 0.00106779661,41.7661387 2.80723729,42.5015376 L2.80723729,42.5015376 L39.0646271,52.0097572 C39.0646271,52.0097572 41.8707966,52.7458728 44.677322,52.0101156 L44.677322,52.0101156 L80.9372034,42.5015376 C80.9372034,42.5015376 83.7437288,41.7661387 83.7437288,38.8585896 L83.7437288,38.8585896 L83.7437288,9.59494798 L83.7437288,0 L0.00106779661,0 Z" id="Fill-3" fill="url(#linearGradient-1)"></path>
                    <g id="Group-37" transform="translate(5.694915, 8.175040)" fill="#FEFEFE">
                        <path d="M20.4571678,5.18599538 C22.3283034,4.8541341 26.1228966,4.7960763 26.0677271,6.88400694 L26.0271508,9.39196069 L22.5254898,10.0148277 L22.5290492,9.05042312 C22.5571678,8.33437688 21.4900831,8.46697803 20.9718458,8.55764855 C18.2283203,9.04576416 17.5495576,11.8210705 17.8556593,13.5760647 C18.114422,15.0504462 19.017422,16.2746775 20.9067102,15.9399491 C21.7413712,15.7919376 22.3478797,15.5493133 22.356422,14.931822 L22.3735068,13.9459145 L25.9146763,13.3180301 L25.9072017,15.5708162 C25.8790831,17.9243075 23.0351847,19.0248971 21.2181508,19.3467237 C17.4733881,20.0118798 14.3760661,18.0418566 13.7546085,14.4956717 C13.0085746,10.2234058 15.8599475,6.00203006 20.4571678,5.18599538" id="Fill-5"></path>
                        <path d="M28.0981068,13.8165387 L28.223039,6.88615723 L27.0541576,7.09330173 L27.1082593,4.23664277 L32.1318864,3.34463121 L32.008022,12.7955098 C31.9848864,13.0879491 32.0019712,13.4112092 32.0315136,13.5789318 C32.0913102,13.9165272 32.2568186,14.0971514 32.7935644,14.0021803 C32.9601407,13.9731514 33.1612424,13.9165272 33.1612424,13.9165272 L33.0825814,17.0674173 C33.0825814,17.0674173 32.6291237,17.206111 32.0361407,17.3121919 C30.3134288,17.6182497 28.6213271,17.5713017 28.2095136,15.2188855 C28.1372593,14.8085387 28.1005983,14.3734636 28.0981068,13.8165387" id="Fill-7"></path>
                        <path d="M34.3446814,13.0521827 L34.4169356,9.63609017 L33.2299017,9.84574335 L33.3021559,6.98478382 L38.3439356,6.08918844 L38.2400034,11.6093387 C38.2300373,11.767385 38.226478,12.0755931 38.2545966,12.2440324 C38.3133254,12.5798358 38.4642407,12.7844717 38.9273085,12.7024023 C39.8719525,12.5346798 40.4834441,11.2115353 40.4934102,10.0758243 L40.5129864,8.55234451 L39.3280881,8.76307283 L39.3989186,5.90211329 L44.4399864,5.00580116 L44.3246644,10.8958012 C44.3235966,10.9929225 44.316122,11.2824948 44.3652407,11.5631075 C44.4218339,11.8802751 44.5809356,12.139385 45.2105797,12.0275699 C45.3223424,12.0071422 45.4497661,11.968437 45.4497661,11.968437 L45.4141729,14.8207954 C45.3614949,14.8483908 44.1289017,15.1254197 43.4989017,15.2365179 C42.3876814,15.4350613 41.3903593,15.4196509 40.8069864,13.8295121 L40.7689017,13.8370382 C40.1307153,15.3160786 39.171122,16.1586335 37.8185797,16.3998243 C36.2599525,16.6768532 34.7540034,16.0392925 34.4269017,14.1742751 C34.3592746,13.781489 34.3386305,13.3428301 34.3446814,13.0521827" id="Fill-9"></path>
                        <path d="M46.5095186,3.63879075 L45.3417051,3.84593526 L45.3958068,0.990709827 L50.4183661,0.0986982659 L50.3446881,3.70903353 C50.3397051,4.22976185 50.2895186,4.60247861 50.2895186,4.60247861 L50.3276034,4.59638613 C50.8397898,3.92943815 51.7182305,3.48468671 52.4596373,3.35316069 C54.8134169,2.93492948 56.5204678,4.3838659 56.976061,6.99539191 C57.585061,10.4670335 55.3466034,13.2878543 52.7144847,13.7555422 C51.8431627,13.9096462 50.7234,13.8401202 49.9282475,13.1151145 L49.8901627,13.1212069 C49.8901627,13.1212069 49.9232644,13.3093572 49.9293153,13.5573572 L49.9342983,14.0182358 L46.3368915,14.6572301 L46.5095186,3.63879075 Z M51.6374339,10.656259 C52.4891797,10.505022 53.3811458,9.48184277 53.1202475,7.98846705 C52.9743153,7.16741503 52.4165695,6.70832832 51.6755186,6.83985434 C51.1398407,6.93590058 49.8926542,7.79279075 50.1976881,9.52699884 C50.3240441,10.2548717 50.8031288,10.8042705 51.6374339,10.656259 L51.6374339,10.656259 Z" id="Fill-11"></path>
                        <path d="M16.7971525,32.2004347 L18.1867119,31.9542266 L18.3080847,24.0243191 L16.9195932,24.2705272 L16.9722712,21.2991861 L22.6970847,20.2820994 C26.6461525,19.5811052 29.3270339,21.1436486 29.9153898,24.5016832 C30.6995085,28.981452 28.1421356,33.1479954 23.5644915,33.9615214 L16.7444746,35.1717757 L16.7971525,32.2004347 Z M22.9629661,30.8550705 C25.336322,30.4343306 26.4119492,28.0679376 25.977,25.5868624 C25.6794407,23.8874173 24.633,23.1509434 23.0768644,23.4279723 L22.2987966,23.5655908 L22.2044746,30.9901803 L22.9629661,30.8550705 Z" id="Fill-13"></path>
                        <path d="M35.3371627,21.655059 C38.0240949,21.1776948 39.8315186,22.5495792 40.207739,24.6948509 C40.3867729,25.7234058 40.1636034,26.6276023 40.1636034,26.6276023 L34.548061,27.6242613 C34.6925695,28.5607121 35.4033661,28.8008277 36.2376712,28.6528162 C37.5905695,28.4127006 38.8758407,27.2400763 38.8758407,27.2400763 L40.3401458,29.9247121 C40.3401458,29.9247121 38.9456034,31.461452 36.3690102,31.9183884 C33.052078,32.5075676 31.1172305,30.7360879 30.6772983,28.2141572 C30.1405525,25.1557295 32.0939085,22.2299029 35.3371627,21.655059 L35.3371627,21.655059 Z M36.4583492,25.5535329 C36.4583492,25.5535329 36.4373492,25.2102035 36.4006881,25.005926 C36.3394678,24.6504116 36.1458407,24.204585 35.5713661,24.3056486 C34.8861966,24.4271399 34.6608915,25.219163 34.605722,25.8836023 L36.4583492,25.5535329 Z" id="Fill-15"></path>
                        <path d="M46.2178678,23.8973445 C46.2178678,23.8973445 46.2523932,23.5450555 46.2093254,23.3027896 C46.1370712,22.8931595 45.5512068,22.9196798 45.1799695,22.985622 C44.0110881,23.1927665 42.5161729,24.3625237 42.5161729,24.3625237 L41.2910542,21.7320035 C41.2910542,21.7320035 43.266122,20.2468705 45.4348169,19.861252 C46.9738678,19.5885237 49.5177153,19.7143156 49.9587153,22.232304 C50.1598169,23.3705237 49.8569186,24.925541 50.0103254,25.802859 C50.0665627,26.1200266 50.2455966,26.3766277 50.7834102,26.2816566 C50.8752407,26.2648127 51.0959186,26.2067549 51.0959186,26.2067549 L51.0443085,29.0834832 C51.0443085,29.0834832 50.8677661,29.1723618 49.6828678,29.382015 C48.7371559,29.5497376 47.324461,29.994489 46.5549356,28.436963 L46.5168508,28.4430555 C46.5168508,28.4430555 45.6800542,30.2091595 43.8274271,30.5377954 C42.4745288,30.777911 41.0251729,30.1511017 40.7493254,28.5634717 C40.2641898,25.8014254 43.8455797,24.3180844 46.2178678,23.8973445 M45.0123254,27.7101653 C45.5882237,27.6076682 46.0573424,26.909541 46.1541559,26.0451249 L46.1886814,25.6931942 L45.8921898,25.7448012 C45.4850034,25.8175526 44.1669864,26.2637376 44.3335627,27.2148821 C44.4104441,27.6449399 44.7535627,27.7556798 45.0123254,27.7101653" id="Fill-17"></path>
                        <path d="M51.6080339,24.9034647 L51.7340339,17.9741584 L50.5655085,18.1813029 L50.6181864,15.3246439 L55.6418136,14.4326324 L55.5193729,23.8813607 C55.4948136,24.1748751 55.5129661,24.4995688 55.5435763,24.6672913 C55.602661,25.0034532 55.7667458,25.1851526 56.3045593,25.0891064 C56.4711356,25.0600775 56.6708136,25.0045283 56.6708136,25.0045283 L56.5925085,28.1557769 C56.5925085,28.1557769 56.1390508,28.293037 55.5460678,28.3994763 C53.8233559,28.7041006 52.132322,28.6596613 51.7194407,26.3072451 C51.6482542,25.8965399 51.6105254,25.4603896 51.6080339,24.9034647" id="Fill-19"></path>
                        <path d="M64.1257068,13.4020347 C66.1819271,12.9691098 67.5074186,10.9460462 67.0810119,8.87424277 C67.5074186,10.9460462 69.5180797,12.2738497 71.5757237,11.8445087 C69.5180797,12.2738497 68.198639,14.3015723 68.6261136,16.3748092 C68.198639,14.3015723 66.1819271,12.9691098 64.1257068,13.4020347" id="Fill-21"></path>
                        <path d="M70.6663881,5.65852139 C69.5733203,5.88537688 68.8739136,6.96446358 69.1002864,8.06003584 C68.8739136,6.96446358 67.8039814,6.25558497 66.7098458,6.48459075 C67.8039814,6.25558497 68.5037441,5.17793179 68.2819983,4.0830763 C68.5037441,5.17793179 69.5733203,5.88537688 70.6663881,5.65852139" id="Fill-23"></path>
                        <path d="M64.3314712,9.92899538 C63.2384034,10.1558509 62.5389966,11.2338624 62.7657254,12.3305098 C62.5389966,11.2338624 61.4679966,10.526059 60.3749288,10.7550647 C61.4679966,10.526059 62.1688271,9.44840578 61.9470814,8.35247514 C62.1688271,9.44840578 63.2384034,10.1558509 64.3314712,9.92899538" id="Fill-25"></path>
                        <path d="M65.8767153,17.248185 C64.7836475,17.4771908 64.0853085,18.5548439 64.3106136,19.6496994 C64.0853085,18.5548439 63.0143085,17.8459653 61.9201729,18.0746127 C63.0143085,17.8459653 63.7140712,16.7683121 63.4923254,15.6727399 C63.7140712,16.7683121 64.7836475,17.4771908 65.8767153,17.248185" id="Fill-27"></path>
                        <path d="M3.93144915,24.1774555 C5.98731356,23.7445306 7.31316102,21.7214671 6.88568644,19.6496636 C7.31316102,21.7214671 9.32382203,23.0496289 11.3800424,22.6199295 C9.32382203,23.0496289 8.00438136,25.0773514 8.43185593,27.1502301 C8.00438136,25.0773514 5.98731356,23.7445306 3.93144915,24.1774555" id="Fill-29"></path>
                        <path d="M10.4709203,16.4339064 C9.37927627,16.6614786 8.67951356,17.7398486 8.90481864,18.8354208 C8.67951356,17.7398486 7.60851356,17.0316867 6.51544576,17.2599757 C7.60851356,17.0316867 8.30934407,15.9540335 8.08759831,14.8584613 C8.30934407,15.9540335 9.37927627,16.6614786 10.4709203,16.4339064" id="Fill-31"></path>
                        <path d="M4.13611017,20.7045237 C3.04304237,20.932096 2.34470339,22.0097491 2.57000847,23.1060382 C2.34470339,22.0097491 1.27263559,21.302304 0.180635593,21.5305931 C1.27263559,21.302304 1.9745339,20.2246509 1.75278814,19.1276451 C1.9745339,20.2246509 3.04304237,20.932096 4.13611017,20.7045237" id="Fill-33"></path>
                        <path d="M5.68117627,28.0235699 C4.5895322,28.2525757 3.89083729,29.3302289 4.11507458,30.4258012 C3.89083729,29.3302289 2.81876949,28.6213503 1.72605763,28.8499977 C2.81876949,28.6213503 3.5196,27.5436971 3.29785424,26.4488416 C3.5196,27.5436971 4.5895322,28.2525757 5.68117627,28.0235699" id="Fill-35"></path>
                    </g>
                </g>
            </g>
        </g>
    </g>
</svg>